Project_Milestone_02
…
ℹ Use `spec()` to retrieve the full column specification for this data.
ℹ Specify the column types or set `show_col_types = FALSE` to quiet this message.

#Assign it as "ca_vax_rates_quarter_raw" to distinguish it as raw data
ca_vax_rates_quarter_raw <- ca_vax_rates_quarter
print(ca_vax_rates_quarter_raw)

# A tibble: 13,533 × 13
   `County Name` `County Type` `Demographic Category` `Demographic Value`
   <chr>         <chr>         <chr>                  <chr>              
 1 Alameda       MIXED         Age Group              12-17              
 2 Alameda       MIXED         Age Group              12-17              
 3 Alameda       MIXED         Age Group              12-17              
 4 Alameda       MIXED         Age Group              12-17              
 5 Alameda       MIXED         Age Group              12-17              
 6 Alameda       MIXED         Age Group              12-17              
 7 Alameda       MIXED         Age Group              12-17              
 8 Alameda       MIXED         Age Group              12-17              
 9 Alameda       MIXED         Age Group              12-17              
10 Alameda       MIXED         Age Group              12-17              
# ℹ 13,523 more rows
# ℹ 9 more variables: `Estimated Population` <dbl>, `Dt Admin` <date>,
#   `Total Partial Vaccinated` <dbl>, `Cumulative Fully Vaccinated` <dbl>,
#   `Cumulative At Least ONe Dose` <dbl>, `Cumulative Unvaccinated` <dbl>,
#   `Suppress Data` <lgl>, `Cumulative Up To Date Vax` <dbl>, Quarter <date>
…
Rows: 114912 Columns: 18
── Column specification ────────────────────────────────────────────────────────
Delimiter: ","
chr   (3): county, age_cat, sex
dbl  (13): time_int, new_infections, new_recovered, count_susceptible, curre...
date  (2): report_date, dt_diagnosis

ℹ Use `spec()` to retrieve the full column specification for this data.
ℹ Specify the column types or set `show_col_types = FALSE` to quiet this message.

print(sim_flu_CA_raw)

# A tibble: 114,912 × 18
   county         time_int new_infections new_recovered count_susceptible
   <chr>             <dbl>          <dbl>         <dbl>             <dbl>
 1 Alameda County   202240            121             0             46000
 2 Alameda County   202241             75           119             45925
 3 Alameda County   202242             76            77             45849
 4 Alameda County   202243             89            75             45760
 5 Alameda County   202244             54            88             45706
 6 Alameda County   202245             68            55             45638
 7 Alameda County   202246             66            67             45572
 8 Alameda County   202247            195            66             45377
 9 Alameda County   202248            339           195             45038
10 Alameda County   202249            160           334             44878
# ℹ 114,902 more rows
# ℹ 13 more variables: current_infected <dbl>, cumulative_infected <dbl>,
#   cumulative_recovered <dbl>, new_unrecovered <dbl>,
#   cumulative_unrecovered <dbl>, new_severe <dbl>, cumulative_severe <dbl>,
#   age_cat <chr>, sex <chr>, race_ethnicity <dbl>, report_date <date>,
#   dt_diagnosis <date>, pop <dbl>
…
Rows: 2016 Columns: 13
── Column specification ────────────────────────────────────────────────────────
Delimiter: ","
chr (4): DT_DX, AGE_CATEGORY, SEX, RACE_ETH
dbl (8): DX_NEW, RECOVERED_NEW, INFECTED_CURRENT, INFECTED_CUMULATIVE, RECOV...
lgl (1): DT_REPORT

ℹ Use `spec()` to retrieve the full column specification for this data.
ℹ Specify the column types or set `show_col_types = FALSE` to quiet this message.

#Assign it as "sim_flu_LACounty_raw" to distinguish it as raw data
sim_flu_LACounty_raw <- sim_flu_LACounty
print(sim_flu_LACounty_raw)

# A tibble: 2,016 × 13
   DT_DX     AGE_CATEGORY SEX    RACE_ETH         DT_REPORT DX_NEW RECOVERED_NEW
   <chr>     <chr>        <chr>  <chr>            <lgl>      <dbl>         <dbl>
 1 03OCT2022 0-17         FEMALE White, Non-Hisp… NA           513             0
 2 09OCT2022 0-17         FEMALE White, Non-Hisp… NA           343           508
 3 19OCT2022 0-17         FEMALE White, Non-Hisp… NA           340           341
 4 26OCT2022 0-17         FEMALE White, Non-Hisp… NA           422           341
 5 01NOV2022 0-17         FEMALE White, Non-Hisp… NA           321           421
 6 05NOV2022 0-17         FEMALE White, Non-Hisp… NA           366           316
 7 07NOV2022 0-17         FEMALE White, Non-Hisp… NA           345           375
 8 25NOV2022 0-17         FEMALE White, Non-Hisp… NA           828           336
 9 27NOV2022 0-17         FEMALE White, Non-Hisp… NA          1533           819
10 02DEC2022 0-17         FEMALE White, Non-Hisp… NA           760          1529
# ℹ 2,006 more rows
# ℹ 6 more variables: INFECTED_CURRENT <dbl>, INFECTED_CUMULATIVE <dbl>,
#   RECOVERED_CUMULATIVE <dbl>, SUSCEPTIBLE <dbl>, SEVERE_NEW <dbl>,
#   SEVERE_CUMULATIVE <dbl>
…
