Project_Milestone_03
…
Select vaccination time frame that fits best with morbidity data and subset appropriately

# Convert dt_admin to Date format
df_ca_vax_clean$dt_admin <- as.Date(df_ca_vax_clean$dt_admin, format = "%d/%m/%Y")

# Subsetting the data for the years 2022 and 2023
df_ca_vax_clean <- df_ca_vax_clean %>%
  filter(format(dt_admin, "%Y") %in% c("2022", "2023")) %>%
# Add column for yr_epiweek, calculated from dt_admin
  mutate(quarter = quarter(dt_admin, with_year = TRUE))

print(df_ca_vax_clean)

# A tibble: 7,280 × 13
   county        estimated_population dt_admin   total_partial_vaccinated
   <chr>                        <dbl> <date>                        <dbl>
 1 AlamedaCounty                 4113 2022-03-31                      389
 2 AlamedaCounty                 4113 2022-06-30                      400
 3 AlamedaCounty                 4113 2022-09-30                      436
 4 AlamedaCounty                 4113 2022-12-31                      503
 5 AlamedaCounty                 4113 2023-03-31                      515
 6 AlamedaCounty                 4113 2023-06-30                      523
 7 AlamedaCounty                 4113 2023-08-26                      526
 8 AlamedaCounty                13184 2022-03-31                      699
 9 AlamedaCounty                13184 2022-06-30                      754
10 AlamedaCounty                13184 2022-09-30                      842
# ℹ 7,270 more rows
# ℹ 9 more variables: cumulative_fully_vaccinated <dbl>,
#   cumulative_at_least_one_dose <dbl>, cumulative_unvaccinated <dbl>,
#   suppress_data <lgl>, cumulative_up_to_date_vax <dbl>, race_eth <fct>,
#   age_category <chr>, sex <chr>, quarter <dbl>
…
